…
::: {.cell}

```{.r .cell-code}
fishing %>%
  count(region, species) %>%
  pivot_wider(names_from = species, values_from = n, values_fill = list(n = 0))
```

::: {.cell-output .cell-output-stdout}

```
# A tibble: 24 × 52
   region      `Amercian Eel` `American Eel` `Blue Pike` Bowfin Buffalo Bullhead
   <chr>                <int>          <int>       <int>  <int>   <int>    <int>
 1 Canada (ON…            130              9         187    107      47       20
 2 Georgian B…              0              0           0      0      29        0
 3 Green Bay …              0              0           0      0       1        0
 4 Green Bay …              0              0           0      0       1        0
 5 Huron Prop…              0              0           0      0      29        0
 6 Illinois (…              0              0           0      0       1        0
 7 Indiana (I…              0              0           0      0       1        0
 8 MI State T…              0              0           0      0       1        0
 9 Mich. Prop…              0              0           0      0       1        0
10 Mich. Prop…              0              0           0      0       1        0
# ℹ 14 more rows
# ℹ 45 more variables: Bullheads <int>, Burbot <int>, Carp <int>,
#   `Channel Catfish` <int>, `Channel Catfish and Bullheads` <int>,
#   `Channel catfish` <int>, Chubs <int>, Cisco <int>, `Cisco and Chubs` <int>,
#   `Cisco and chubs` <int>, Crappie <int>, Drum <int>,
#   `Freshwater Drum` <int>, `Gizzard Shad` <int>, Goldfish <int>,
#   Herring <int>, `Lake Sturgeon` <int>, `Lake Trout` <int>, …
```
…
