Great Lake Fish Analysis
…
After analyzing the test_data by running the str(test_data) function, it was found that the data set consists of 32,853 rows and 7 columns. The data set contains numeric variables such as year, grand total, and values. In addition to this, the data set contains categorical variables such as region, lake, species, and comments. Based on the results, no issues are present in the column types. The data set is ready to be used for further analysis.

Count Species by Region

The following coding function will help to calculate the number of occurrences for each fish species across different regions. It will group and count species by region, then it will reshape the data so that species names become column headers. The code fills in any missing values with 0, to make sure there is a full summary of the distribution of species across regions.

test_data%>%
  count(region, species) %>%
  pivot_wider(names_from = species, values_from = n, values_fill = list(n = 0))

# A tibble: 24 × 52
   region      `Amercian Eel` `American Eel` `Blue Pike` Bowfin Buffalo Bullhead
   <chr>                <int>          <int>       <int>  <int>   <int>    <int>
 1 Canada (ON…             72              2          93     57      26        9
 2 Georgian B…              0              0           0      0      14        0
 3 Green Bay …              0              0           0      0       0        0
 4 Green Bay …              0              0           0      0       1        0
 5 Huron Prop…              0              0           0      0      16        0
 6 Illinois (…              0              0           0      0       1        0
 7 Indiana (I…              0              0           0      0       0        0
 8 MI State T…              0              0           0      0       0        0
 9 Mich. Prop…              0              0           0      0       1        0
10 Mich. Prop…              0              0           0      0       1        0
# ℹ 14 more rows
# ℹ 45 more variables: Bullheads <int>, Burbot <int>, Carp <int>,
#   `Channel Catfish` <int>, `Channel Catfish and Bullheads` <int>,
#   `Channel catfish` <int>, Chubs <int>, Cisco <int>, `Cisco and Chubs` <int>,
#   `Cisco and chubs` <int>, Crappie <int>, Drum <int>,
#   `Freshwater Drum` <int>, `Gizzard Shad` <int>, Goldfish <int>,
#   Herring <int>, `Lake Sturgeon` <int>, `Lake Trout` <int>, …
…
The output demonstrates that the fishing data set had 65,706 rows and 7 columns. These columns include year, lake, species, grand_total, comments, region, and values. The output also gives the types of data of each column, helping to understand how the data is organized.

Count Species By Region

The following code counts how often each species of fish occurs in each region with the help of the count() function. Then, it reshapes the data into a broader format with the help of the function pivot_wider() so that each species of fish is a column, and the count values are placed in these columns. If there are any missing species in a place, the code fills those blank space with 0 using the function values_fill=list(n=0).

fishing%>%
  count(region, species) %>%
  pivot_wider(names_from = species, values_from = n, values_fill = list(n = 0))

# A tibble: 24 × 52
   region      `Amercian Eel` `American Eel` `Blue Pike` Bowfin Buffalo Bullhead
   <chr>                <int>          <int>       <int>  <int>   <int>    <int>
 1 Canada (ON…            130              9         187    107      47       20
 2 Georgian B…              0              0           0      0      29        0
 3 Green Bay …              0              0           0      0       1        0
 4 Green Bay …              0              0           0      0       1        0
 5 Huron Prop…              0              0           0      0      29        0
 6 Illinois (…              0              0           0      0       1        0
 7 Indiana (I…              0              0           0      0       1        0
 8 MI State T…              0              0           0      0       1        0
 9 Mich. Prop…              0              0           0      0       1        0
10 Mich. Prop…              0              0           0      0       1        0
# ℹ 14 more rows
# ℹ 45 more variables: Bullheads <int>, Burbot <int>, Carp <int>,
#   `Channel Catfish` <int>, `Channel Catfish and Bullheads` <int>,
#   `Channel catfish` <int>, Chubs <int>, Cisco <int>, `Cisco and Chubs` <int>,
#   `Cisco and chubs` <int>, Crappie <int>, Drum <int>,
#   `Freshwater Drum` <int>, `Gizzard Shad` <int>, Goldfish <int>,
#   Herring <int>, `Lake Sturgeon` <int>, `Lake Trout` <int>, …
…
