Palmer Penguins Initial Analysis
…
The code gives the minimum, first quartile, median, mean, third quartile, and standard deviation of the variable bill_length_mm in the penguin’s data set, not taking into account any missing values. This summary is reshaped into a longer format using the pivot_longer command in which each statistic gets to be a separate row with its value for easier viewing or analysis.

Selecting Specific Columns and Rows

In this section of the analysis, we aim to select specific columns or rows satisfying certain conditions (using the filter() function).

penguins %>%
  select(species, island, sex, year)

# A tibble: 44 × 4
   species island sex    year
   <chr>   <chr>  <chr> <dbl>
 1 Gentoo  Biscoe male   2007
 2 Gentoo  Biscoe male   2008
 3 Gentoo  Biscoe male   2009
 4 Gentoo  Biscoe male   2009
 5 Gentoo  Biscoe male   2009
 6 Gentoo  Biscoe male   2009
 7 Gentoo  Biscoe male   2008
 8 Gentoo  Biscoe male   2009
 9 Gentoo  Biscoe male   2008
10 Gentoo  Biscoe male   2007
# ℹ 34 more rows
…
